{
	"process_id" : 24712,
	"version" : "2019.2.1f1",
	"app_path" : "C:/Program Files/Unity/Hub/Editor/2019.2.1f1/Editor/Unity.exe",
	"app_contents_path" : "C:/Program Files/Unity/Hub/Editor/2019.2.1f1/Editor/Data"
}